0 0.858594 0.854861 0.157813 0.137500
1 0.601562 0.927083 0.443750 0.115278
1 0.311328 0.799306 0.580469 0.118056
1 0.305078 0.676389 0.317969 0.088889
1 0.315234 0.550000 0.574219 0.097222
1 0.733594 0.675000 0.409375 0.127778
1 0.803125 0.547222 0.337500 0.133333
1 0.736719 0.395833 0.457812 0.138889
1 0.764062 0.265972 0.442187 0.145833
1 0.835937 0.146528 0.196875 0.104167
1 0.272656 0.174306 0.493750 0.140278
1 0.253516 0.305556 0.475781 0.116667
1 0.252344 0.415278 0.406250 0.136111
