1 0.560937 0.647917 0.470313 0.229167
1 0.202344 0.551389 0.264062 0.163889
1 0.076563 0.519444 0.153125 0.080556
1 0.065234 0.447917 0.130469 0.084722
1 0.498047 0.280556 0.102344 0.069444
1 0.695703 0.272222 0.108594 0.083333
1 0.903516 0.302778 0.128906 0.105556
