3 0.613672 0.534722 0.030469 0.050000
3 0.872656 0.459722 0.040625 0.041667
3 0.962500 0.525694 0.026563 0.037500
3 0.754687 0.304167 0.025000 0.041667
3 0.418750 0.277778 0.025000 0.038889
3 0.341406 0.296528 0.023438 0.034722
3 0.241016 0.367361 0.035156 0.026389
3 0.131250 0.512500 0.040625 0.041667
3 0.346875 0.740278 0.028125 0.047222
