3 0.703125 0.747917 0.089062 0.254167
3 0.592969 0.795139 0.081250 0.234722
3 0.503906 0.793056 0.098438 0.241667
3 0.419531 0.716667 0.121875 0.261111
3 0.334766 0.668750 0.166406 0.295833
3 0.204297 0.584722 0.216406 0.369444
3 0.815625 0.683333 0.095312 0.311111
