3 0.484375 0.493056 0.306250 0.886111
3 0.897266 0.366667 0.203906 0.541667
3 0.731250 0.325694 0.170312 0.523611
3 0.633984 0.289583 0.082031 0.481944
3 0.314844 0.229861 0.150000 0.459722
3 0.180859 0.213194 0.133594 0.426389
3 0.064062 0.190278 0.110937 0.375000
