67 0.416406 0.365278 0.057813 0.077778
67 0.230859 0.484028 0.086719 0.131944
67 0.600781 0.552778 0.046875 0.105556
67 0.713672 0.599306 0.049219 0.109722
67 0.875781 0.488194 0.065625 0.098611
67 0.791406 0.567361 0.056250 0.109722
67 0.704687 0.854167 0.084375 0.061111
67 0.781250 0.204167 0.051562 0.111111
67 0.637500 0.174306 0.070313 0.093056
67 0.477734 0.095833 0.085156 0.111111
67 0.410547 0.295833 0.044531 0.086111
