67 0.296875 0.747917 0.089062 0.254167
67 0.407031 0.795139 0.081250 0.234722
67 0.496094 0.793056 0.098438 0.241667
67 0.580469 0.716667 0.121875 0.261111
67 0.665234 0.668750 0.166406 0.295833
67 0.795703 0.584722 0.216406 0.369444
67 0.184375 0.683333 0.095312 0.311111
