67 0.691016 0.449306 0.053906 0.173611
67 0.959766 0.513889 0.063281 0.208333
67 0.480469 0.817361 0.062500 0.179167
67 0.335938 0.486806 0.051562 0.156944
67 0.196875 0.331944 0.051562 0.191667
67 0.350391 0.261111 0.046094 0.141667
67 0.520312 0.177778 0.048437 0.136111
67 0.537500 0.078472 0.068750 0.059722
67 0.764453 0.069444 0.085156 0.088889
67 0.663281 0.140278 0.046875 0.130556
